module gitlab.com/mailoman/go-utils

go 1.18

require github.com/stretchr/testify v1.8.0

require (
	github.com/davecgh/go-spew v1.1.1 // indirect
	github.com/pmezard/go-difflib v1.0.0 // indirect
	golang.org/x/lint v0.0.0-20210508222113-6edffad5e616 // indirect
	golang.org/x/tools v0.1.12 // indirect
	gopkg.in/yaml.v3 v3.0.1 // indirect
)
